<?xml version="1.0" encoding="UTF-8"?>
<glyph name="i_macr" format="1">
  <advance width="275"/>
  <unicode hex="012B"/>
  <outline>
    <contour>
      <point x="198" y="57" type="curve"/>
      <point x="198" y="155"/>
      <point x="193" y="294"/>
      <point x="207" y="391" type="curve"/>
      <point x="195" y="402" type="line"/>
      <point x="165" y="391"/>
      <point x="99" y="374"/>
      <point x="66" y="361" type="curve"/>
      <point x="66" y="336" type="line"/>
      <point x="97" y="334"/>
      <point x="116" y="328"/>
      <point x="117" y="286" type="curve"/>
      <point x="118" y="232"/>
      <point x="122" y="83"/>
      <point x="106" y="2" type="curve"/>
      <point x="108" y="-11" type="line"/>
      <point x="151" y="-6"/>
      <point x="194" y="-2"/>
      <point x="256" y="1" type="curve"/>
      <point x="256" y="26" type="line"/>
      <point x="207" y="30"/>
      <point x="198" y="31"/>
    </contour>
    <contour>
      <point x="44" y="530" type="curve"/>
      <point x="15" y="539" type="line"/>
      <point x="29" y="562"/>
      <point x="87" y="625"/>
      <point x="93" y="625" type="curve"/>
      <point x="133" y="625"/>
      <point x="168" y="615"/>
      <point x="200" y="615" type="curve"/>
      <point x="221" y="615"/>
      <point x="230" y="622"/>
      <point x="242" y="627" type="curve"/>
      <point x="270" y="619" type="line"/>
      <point x="256" y="596"/>
      <point x="198" y="532"/>
      <point x="192" y="532" type="curve"/>
      <point x="153" y="532"/>
      <point x="117" y="543"/>
      <point x="86" y="543" type="curve"/>
      <point x="64" y="543"/>
      <point x="58" y="537"/>
    </contour>
  </outline>
  <lib>
    <dict>
      <key>com.schriftgestaltung.Glyphs.lastChange</key>
      <string>2019-04-24 07:11:52 +0000</string>
      <key>com.schriftgestaltung.Glyphs.leftMetricsKey</key>
      <string>i</string>
      <key>com.schriftgestaltung.Glyphs.rightMetricsKey</key>
      <string>i</string>
      <key>public.markColor</key>
      <string>0.67,0.95,0.38,1</string>
    </dict>
  </lib>
</glyph>
