<?xml version="1.0" encoding="UTF-8"?>
<glyph name="L" format="1">
  <advance width="625"/>
  <unicode hex="004C"/>
  <outline>
    <contour>
      <point x="625" y="116" type="curve"/>
      <point x="592" y="128" type="line"/>
      <point x="571" y="84" type="line" smooth="yes"/>
      <point x="563" y="67"/>
      <point x="555" y="65"/>
      <point x="531" y="65" type="curve"/>
      <point x="173" y="65" type="line"/>
      <point x="170" y="262"/>
      <point x="170" y="455"/>
      <point x="173" y="652" type="curve"/>
      <point x="270" y="655" type="line"/>
      <point x="270" y="700" type="line"/>
      <point x="40" y="700" type="line"/>
      <point x="40" y="655" type="line"/>
      <point x="88" y="652" type="line"/>
      <point x="91" y="450"/>
      <point x="91" y="253"/>
      <point x="88" y="51" type="curve"/>
      <point x="44" y="45" type="line"/>
      <point x="44" y="0" type="line"/>
      <point x="592" y="0" type="line"/>
      <point x="601" y="39"/>
      <point x="611" y="77"/>
    </contour>
  </outline>
  <lib>
    <dict>
      <key>com.schriftgestaltung.Glyphs.lastChange</key>
      <string>2019-04-19 17:56:10 +0000</string>
      <key>public.markColor</key>
      <string>0.97,0.9,0,1</string>
    </dict>
  </lib>
</glyph>
