<?xml version="1.0" encoding="UTF-8"?>
<glyph name="bardes" format="1">
  <advance width="440"/>
  <outline>
    <contour>
      <point x="398" y="-61" type="curve"/>
      <point x="430" y="-75" type="line"/>
      <point x="410" y="-124"/>
      <point x="375" y="-157"/>
      <point x="356" y="-157" type="curve"/>
      <point x="207" y="-157"/>
      <point x="109" y="-156"/>
      <point x="10" y="-166" type="curve"/>
      <point x="18" y="-132" type="line"/>
      <point x="174" y="-124"/>
      <point x="336" y="-124"/>
    </contour>
  </outline>
  <lib>
    <dict>
      <key>com.schriftgestaltung.Glyphs.lastChange</key>
      <string>2019-04-19 17:44:59 +0000</string>
      <key>public.markColor</key>
      <string>0.75,0.75,0.75,1</string>
    </dict>
  </lib>
</glyph>
