<?xml version="1.0" encoding="UTF-8"?>
<glyph name="colon" format="1">
  <advance width="167"/>
  <unicode hex="003A"/>
  <outline>
    <component base="period"/>
    <component base="period" yOffset="223"/>
  </outline>
  <lib>
    <dict>
      <key>com.schriftgestaltung.Glyphs.lastChange</key>
      <string>2019-01-11 12:34:15 +0000</string>
      <key>public.markColor</key>
      <string>0.75,0.75,0.75,1</string>
    </dict>
  </lib>
</glyph>
