<?xml version="1.0" encoding="UTF-8"?>
<glyph name="i" format="1">
  <advance width="244"/>
  <unicode hex="0069"/>
  <outline>
    <contour>
      <point x="67" y="65" type="curve"/>
      <point x="66" y="360" type="line"/>
      <point x="66" y="384"/>
      <point x="55" y="390"/>
      <point x="26" y="399" type="curve"/>
      <point x="25" y="418" type="line"/>
      <point x="61" y="436"/>
      <point x="90" y="445"/>
      <point x="116" y="456" type="curve"/>
      <point x="124" y="456"/>
      <point x="171" y="428"/>
      <point x="169" y="404" type="curve"/>
      <point x="164" y="349"/>
      <point x="161" y="212"/>
      <point x="167" y="109" type="curve"/>
      <point x="169" y="75"/>
      <point x="179" y="58"/>
      <point x="214" y="60" type="curve"/>
      <point x="216" y="35" type="line"/>
      <point x="185" y="23"/>
      <point x="140" y="2"/>
      <point x="116" y="-10" type="curve"/>
      <point x="98" y="-10"/>
      <point x="67" y="26"/>
    </contour>
    <contour>
      <point x="219" y="705" type="line"/>
      <point x="136" y="550" type="line"/>
      <point x="106" y="564" type="line"/>
      <point x="170" y="710" type="line"/>
    </contour>
    <contour>
      <point x="125" y="1" type="move" name="bottom"/>
    </contour>
  </outline>
  <lib>
    <dict>
      <key>com.schriftgestaltung.Glyphs.lastChange</key>
      <string>2019-03-11 17:51:36 +0000</string>
      <key>com.typemytype.robofont.mark</key>
      <array>
        <real>0.6</real>
        <integer>1</integer>
        <real>0.929</real>
        <integer>1</integer>
      </array>
      <key>public.markColor</key>
      <string>0.67,0.95,0.38,1</string>
    </dict>
  </lib>
</glyph>
