<?xml version="1.0" encoding="UTF-8"?>
<glyph name="m_macr" format="1">
  <advance width="702"/>
  <outline>
    <component base="m"/>
    <component base="macr" xScale="1.11" yScale="1.11" xOffset="237" yOffset="-77"/>
  </outline>
  <lib>
    <dict>
      <key>com.schriftgestaltung.Glyphs.ComponentInfo</key>
      <array>
        <dict>
          <key>alignment</key>
          <integer>-1</integer>
          <key>index</key>
          <integer>1</integer>
          <key>name</key>
          <string>macr</string>
        </dict>
      </array>
      <key>com.schriftgestaltung.Glyphs.lastChange</key>
      <string>2019-04-13 16:45:04 +0000</string>
      <key>public.markColor</key>
      <string>0.67,0.95,0.38,1</string>
    </dict>
  </lib>
</glyph>
