<?xml version="1.0" encoding="UTF-8"?>
<glyph name="urrot" format="1">
  <advance width="185"/>
  <outline>
    <contour>
      <point x="10" y="673" type="curve"/>
      <point x="11" y="704" type="line"/>
      <point x="141" y="709" type="line"/>
      <point x="145" y="704" type="line"/>
      <point x="128" y="616" type="line" smooth="yes"/>
      <point x="121" y="578"/>
      <point x="122" y="578"/>
      <point x="175" y="564" type="curve"/>
      <point x="164" y="539" type="line"/>
      <point x="52" y="549" type="line"/>
      <point x="47" y="555" type="line"/>
      <point x="55" y="626" type="line" smooth="yes"/>
      <point x="60" y="673"/>
      <point x="46" y="673"/>
    </contour>
  </outline>
  <lib>
    <dict>
      <key>com.schriftgestaltung.Glyphs.lastChange</key>
      <string>2019-04-19 17:44:59 +0000</string>
      <key>public.markColor</key>
      <string>0.75,0.75,0.75,1</string>
    </dict>
  </lib>
</glyph>
