<?xml version="1.0" encoding="UTF-8"?>
<glyph name="h" format="1">
  <advance width="502"/>
  <unicode hex="0068"/>
  <outline>
    <contour>
      <point x="137" y="337" type="curve"/>
      <point x="137" y="294" type="line"/>
      <point x="180" y="322"/>
      <point x="220" y="336"/>
      <point x="270" y="336" type="curve"/>
      <point x="364" y="336"/>
      <point x="429" y="274"/>
      <point x="429" y="188" type="curve"/>
      <point x="429" y="130"/>
      <point x="408" y="90"/>
      <point x="372" y="58" type="curve"/>
      <point x="351" y="58"/>
      <point x="337" y="61"/>
      <point x="308" y="66" type="curve"/>
      <point x="283" y="5" type="line"/>
      <point x="302" y="1"/>
      <point x="337" y="0"/>
      <point x="356" y="0" type="curve"/>
      <point x="378" y="0"/>
      <point x="477" y="114"/>
      <point x="477" y="218" type="curve"/>
      <point x="477" y="316"/>
      <point x="423" y="413"/>
      <point x="308" y="413" type="curve"/>
      <point x="282" y="413"/>
      <point x="159" y="342"/>
    </contour>
    <contour>
      <point x="166" y="63" type="curve"/>
      <point x="160" y="91"/>
      <point x="160" y="442"/>
      <point x="160" y="497" type="curve"/>
      <point x="160" y="627"/>
      <point x="184" y="704"/>
      <point x="184" y="703" type="curve"/>
      <point x="169" y="710" type="line"/>
      <point x="111" y="641"/>
      <point x="43" y="606"/>
      <point x="10" y="595" type="curve"/>
      <point x="10" y="580" type="line"/>
      <point x="55" y="571"/>
      <point x="79" y="538"/>
      <point x="80" y="422" type="curve"/>
      <point x="81" y="326"/>
      <point x="86" y="128"/>
      <point x="79" y="68" type="curve"/>
      <point x="76" y="43"/>
      <point x="63" y="33"/>
      <point x="25" y="17" type="curve"/>
      <point x="25" y="-8" type="line"/>
      <point x="74" y="1"/>
      <point x="159" y="5"/>
      <point x="220" y="-7" type="curve"/>
      <point x="220" y="18" type="line"/>
      <point x="179" y="40"/>
      <point x="171" y="40"/>
    </contour>
    <contour>
      <point x="261" y="0" type="move" name="bottom"/>
    </contour>
    <contour>
      <point x="261" y="350" type="move" name="center"/>
    </contour>
    <contour>
      <point x="261" y="700" type="move" name="top"/>
    </contour>
  </outline>
  <lib>
    <dict>
      <key>com.schriftgestaltung.Glyphs.lastChange</key>
      <string>2019-04-24 16:49:08 +0000</string>
      <key>com.schriftgestaltung.Glyphs.rightMetricsKey</key>
      <string>o</string>
      <key>com.typemytype.robofont.mark</key>
      <array>
        <real>0.6</real>
        <integer>1</integer>
        <real>0.929</real>
        <integer>1</integer>
      </array>
      <key>public.markColor</key>
      <string>0.67,0.95,0.38,1</string>
    </dict>
  </lib>
</glyph>
