<?xml version="1.0" encoding="UTF-8"?>
<glyph name="l_strok" format="1">
  <advance width="402"/>
  <unicode hex="A769"/>
  <outline>
    <contour>
      <point x="143" y="588" type="curve"/>
      <point x="153" y="551" type="line"/>
      <point x="181" y="575"/>
      <point x="210" y="598"/>
      <point x="241" y="598" type="curve"/>
      <point x="281" y="598"/>
      <point x="303" y="573"/>
      <point x="303" y="542" type="curve"/>
      <point x="303" y="476"/>
      <point x="210" y="397"/>
      <point x="129" y="374" type="curve"/>
      <point x="147" y="349" type="line"/>
      <point x="280" y="422"/>
      <point x="387" y="483"/>
      <point x="387" y="588" type="curve"/>
      <point x="387" y="629"/>
      <point x="349" y="670"/>
      <point x="314" y="688" type="curve"/>
      <point x="271" y="658"/>
      <point x="208" y="617"/>
    </contour>
    <component base="l"/>
    <contour>
      <point x="300" y="0" type="move" name="bottom"/>
    </contour>
    <contour>
      <point x="300" y="350" type="move" name="center"/>
    </contour>
    <contour>
      <point x="300" y="700" type="move" name="top"/>
    </contour>
    <contour>
      <point x="580" y="700" type="move" name="topright"/>
    </contour>
  </outline>
  <lib>
    <dict>
      <key>com.schriftgestaltung.Glyphs.ComponentInfo</key>
      <array>
        <dict>
          <key>alignment</key>
          <integer>-1</integer>
          <key>index</key>
          <integer>0</integer>
          <key>name</key>
          <string>l</string>
        </dict>
      </array>
      <key>com.schriftgestaltung.Glyphs.lastChange</key>
      <string>2019-04-23 16:17:56 +0000</string>
      <key>com.schriftgestaltung.Glyphs.leftMetricsKey</key>
      <string>l</string>
      <key>com.schriftgestaltung.Glyphs.rightMetricsKey</key>
      <string>l</string>
      <key>public.markColor</key>
      <string>0.67,0.95,0.38,1</string>
    </dict>
  </lib>
</glyph>
