<?xml version="1.0" encoding="UTF-8"?>
<glyph name="s_ra" format="1">
  <advance width="429"/>
  <outline>
    <contour>
      <point x="47" y="507" type="curve"/>
      <point x="25" y="522" type="line"/>
      <point x="37" y="532"/>
      <point x="107" y="590"/>
      <point x="130" y="610" type="curve"/>
      <point x="156" y="595"/>
      <point x="187" y="579"/>
      <point x="213" y="565" type="curve"/>
      <point x="274" y="613" type="line"/>
      <point x="322" y="576"/>
      <point x="347" y="560"/>
      <point x="382" y="592" type="curve"/>
      <point x="404" y="579" type="line"/>
      <point x="377" y="550"/>
      <point x="350" y="520"/>
      <point x="316" y="490" type="curve"/>
      <point x="276" y="514"/>
      <point x="244" y="534"/>
      <point x="212" y="540" type="curve"/>
      <point x="180" y="525"/>
      <point x="150" y="501"/>
      <point x="136" y="492" type="curve"/>
      <point x="84" y="526"/>
      <point x="84" y="527"/>
    </contour>
    <component base="s" xOffset="26"/>
  </outline>
  <lib>
    <dict>
      <key>com.schriftgestaltung.Glyphs.lastChange</key>
      <string>2019-04-23 17:35:42 +0000</string>
      <key>com.schriftgestaltung.Glyphs.leftMetricsKey</key>
      <string>s</string>
      <key>com.schriftgestaltung.Glyphs.rightMetricsKey</key>
      <string>s</string>
      <key>public.markColor</key>
      <string>0.67,0.95,0.38,1</string>
    </dict>
  </lib>
</glyph>
