<?xml version="1.0" encoding="UTF-8"?>
<glyph name="period" format="1">
  <advance width="195"/>
  <unicode hex="002E"/>
  <outline>
    <contour>
      <point x="99" y="-20" type="line"/>
      <point x="103" y="-20" type="line"/>
      <point x="155" y="42" type="line"/>
      <point x="155" y="46" type="line"/>
      <point x="96" y="97" type="line"/>
      <point x="92" y="97" type="line"/>
      <point x="40" y="36" type="line"/>
      <point x="40" y="32" type="line"/>
    </contour>
  </outline>
  <lib>
    <dict>
      <key>com.schriftgestaltung.Glyphs.lastChange</key>
      <string>2019-05-14 15:12:52 +0000</string>
      <key>public.markColor</key>
      <string>0.75,0.75,0.75,1</string>
    </dict>
  </lib>
</glyph>
