<?xml version="1.0" encoding="UTF-8"?>
<glyph name="quoteright" format="1">
  <advance width="329"/>
  <unicode hex="2019"/>
  <outline>
    <contour>
      <point x="224" y="700" type="line"/>
      <point x="72" y="515" type="line"/>
      <point x="159" y="439" type="line"/>
      <point x="163" y="439" type="line"/>
      <point x="215" y="500" type="line"/>
      <point x="215" y="504" type="line"/>
      <point x="169" y="544" type="line"/>
      <point x="257" y="700" type="line"/>
    </contour>
  </outline>
  <lib>
    <dict>
      <key>com.schriftgestaltung.Glyphs.lastChange</key>
      <string>2019-05-14 15:12:52 +0000</string>
      <key>public.markColor</key>
      <string>0.75,0.75,0.75,1</string>
    </dict>
  </lib>
</glyph>
