<?xml version="1.0" encoding="UTF-8"?>
<glyph name="z" format="1">
  <advance width="336"/>
  <unicode hex="007A"/>
  <outline>
    <contour>
      <point x="113" y="75" type="curve"/>
      <point x="244" y="75" type="line" smooth="yes"/>
      <point x="274" y="75"/>
      <point x="295" y="82"/>
      <point x="316" y="93" type="curve"/>
      <point x="319" y="90" type="line"/>
      <point x="287" y="0" type="line"/>
      <point x="195" y="0"/>
      <point x="104" y="4"/>
      <point x="12" y="-4" type="curve"/>
      <point x="10" y="1" type="line"/>
      <point x="85" y="89"/>
      <point x="164" y="221"/>
      <point x="228" y="325" type="curve"/>
      <point x="133" y="325"/>
      <point x="60" y="330"/>
      <point x="24" y="303" type="curve"/>
      <point x="12" y="309" type="line"/>
      <point x="62" y="400" type="line"/>
      <point x="238" y="400" type="line" smooth="yes"/>
      <point x="280" y="400"/>
      <point x="311" y="401"/>
      <point x="322" y="404" type="curve"/>
      <point x="326" y="396" type="line"/>
      <point x="250" y="292"/>
      <point x="181" y="188"/>
    </contour>
  </outline>
  <lib>
    <dict>
      <key>com.schriftgestaltung.Glyphs.lastChange</key>
      <string>2019-04-24 18:54:26 +0000</string>
      <key>com.schriftgestaltung.Glyphs.leftMetricsKey</key>
      <string>n</string>
      <key>public.markColor</key>
      <string>0.67,0.95,0.38,1</string>
    </dict>
  </lib>
</glyph>
