<?xml version="1.0" encoding="UTF-8"?>
<glyph name="i" format="1">
  <advance width="248"/>
  <unicode hex="0069"/>
  <outline>
    <contour>
      <point x="182" y="465" type="curve"/>
      <point x="102" y="520" type="line"/>
      <point x="92" y="520" type="line"/>
      <point x="15" y="443" type="line"/>
      <point x="15" y="430" type="line"/>
      <point x="54" y="417"/>
      <point x="64" y="394"/>
      <point x="65" y="373" type="curve"/>
      <point x="68" y="303"/>
      <point x="67" y="141"/>
      <point x="57" y="60" type="curve"/>
      <point x="123" y="-10" type="line"/>
      <point x="233" y="67" type="line"/>
      <point x="233" y="90" type="line"/>
      <point x="196" y="102"/>
      <point x="161" y="115"/>
      <point x="161" y="141" type="curve"/>
      <point x="161" y="266"/>
      <point x="170" y="414"/>
    </contour>
    <contour>
      <point x="219" y="670" type="line"/>
      <point x="94" y="557" type="line"/>
      <point x="29" y="574" type="line"/>
      <point x="29" y="584" type="line"/>
      <point x="157" y="700" type="line"/>
      <point x="219" y="680" type="line"/>
    </contour>
  </outline>
  <lib>
    <dict>
      <key>com.schriftgestaltung.Glyphs.lastChange</key>
      <string>2019-04-24 17:43:03 +0000</string>
      <key>com.schriftgestaltung.Glyphs.leftMetricsKey</key>
      <string>n</string>
      <key>com.schriftgestaltung.Glyphs.rightMetricsKey</key>
      <string>n</string>
      <key>public.markColor</key>
      <string>0.67,0.95,0.38,1</string>
    </dict>
  </lib>
</glyph>
