<?xml version="1.0" encoding="UTF-8"?>
<glyph name="u" format="1">
  <advance width="461"/>
  <unicode hex="0075"/>
  <outline>
    <contour>
      <point x="397" y="141" type="curve"/>
      <point x="397" y="457" type="line"/>
      <point x="394" y="460" type="line"/>
      <point x="297" y="404" type="line"/>
      <point x="297" y="123" type="line"/>
      <point x="284" y="100"/>
      <point x="256" y="90"/>
      <point x="239" y="90" type="curve"/>
      <point x="203" y="90"/>
      <point x="183" y="110"/>
      <point x="183" y="140" type="curve"/>
      <point x="183" y="363" type="line" smooth="yes"/>
      <point x="183" y="416"/>
      <point x="130" y="455"/>
      <point x="93" y="460" type="curve"/>
      <point x="88" y="460" type="line"/>
      <point x="20" y="375" type="line"/>
      <point x="30" y="360" type="line"/>
      <point x="48" y="360"/>
      <point x="79" y="329"/>
      <point x="83" y="310" type="curve"/>
      <point x="83" y="90" type="line" smooth="yes"/>
      <point x="83" y="50"/>
      <point x="120" y="-10"/>
      <point x="160" y="-10" type="curve"/>
      <point x="299" y="77" type="line"/>
      <point x="306" y="51"/>
      <point x="330" y="1"/>
      <point x="381" y="-10" type="curve"/>
      <point x="451" y="75" type="line"/>
      <point x="451" y="90" type="line"/>
      <point x="418" y="97"/>
      <point x="397" y="119"/>
    </contour>
  </outline>
  <lib>
    <dict>
      <key>com.schriftgestaltung.Glyphs.lastChange</key>
      <string>2019-04-24 18:54:44 +0000</string>
      <key>com.schriftgestaltung.Glyphs.rightMetricsKey</key>
      <string>a</string>
      <key>public.markColor</key>
      <string>0.67,0.95,0.38,1</string>
    </dict>
  </lib>
</glyph>
