<?xml version="1.0" encoding="UTF-8"?>
<glyph name="z" format="1">
  <advance width="294"/>
  <unicode hex="007A"/>
  <outline>
    <contour>
      <point x="26" y="343" type="curve"/>
      <point x="19" y="371" type="line"/>
      <point x="182" y="440" type="line"/>
      <point x="237" y="421"/>
      <point x="287" y="384"/>
      <point x="287" y="338" type="curve"/>
      <point x="287" y="274"/>
      <point x="224" y="215"/>
      <point x="178" y="166" type="curve"/>
      <point x="262" y="119"/>
      <point x="289" y="76"/>
      <point x="289" y="6" type="curve"/>
      <point x="289" y="-89"/>
      <point x="195" y="-219"/>
      <point x="42" y="-340" type="curve"/>
      <point x="21" y="-309" type="line"/>
      <point x="97" y="-244"/>
      <point x="194" y="-162"/>
      <point x="194" y="-43" type="curve"/>
      <point x="194" y="24"/>
      <point x="166" y="68"/>
      <point x="59" y="87" type="curve"/>
      <point x="53" y="111" type="line"/>
      <point x="134" y="159"/>
      <point x="179" y="221"/>
      <point x="179" y="258" type="curve"/>
      <point x="179" y="324"/>
      <point x="116" y="349"/>
    </contour>
  </outline>
  <lib>
    <dict>
      <key>com.schriftgestaltung.Glyphs.lastChange</key>
      <string>2019-04-08 14:17:30 +0000</string>
      <key>public.markColor</key>
      <string>0.67,0.95,0.38,1</string>
    </dict>
  </lib>
</glyph>
