<?xml version="1.0" encoding="UTF-8"?>
<glyph name="b_o" format="1">
  <advance width="791"/>
  <outline>
    <contour>
      <point x="180" y="-20" type="curve"/>
      <point x="198" y="-20"/>
      <point x="343" y="47"/>
      <point x="403" y="85" type="curve"/>
      <point x="425" y="99"/>
      <point x="463" y="180"/>
      <point x="463" y="260" type="curve"/>
      <point x="463" y="327"/>
      <point x="378" y="450"/>
      <point x="305" y="450" type="curve"/>
      <point x="295" y="450"/>
      <point x="206" y="379"/>
      <point x="157" y="343" type="curve"/>
      <point x="158" y="314" type="line"/>
      <point x="177" y="325"/>
      <point x="203" y="333"/>
      <point x="235" y="333" type="curve"/>
      <point x="301" y="333"/>
      <point x="359" y="294"/>
      <point x="359" y="213" type="curve"/>
      <point x="359" y="141"/>
      <point x="315" y="69"/>
      <point x="258" y="69" type="curve"/>
      <point x="211" y="69"/>
      <point x="168" y="105"/>
      <point x="158" y="131" type="curve"/>
      <point x="158" y="177"/>
      <point x="159" y="286"/>
      <point x="174" y="330" type="curve"/>
      <point x="163" y="340" type="line"/>
      <point x="172" y="718" type="line"/>
      <point x="164" y="722" type="line"/>
      <point x="48" y="670" type="line"/>
      <point x="48" y="590"/>
      <point x="48" y="545"/>
      <point x="48" y="464" type="curve"/>
      <point x="48" y="426"/>
      <point x="23" y="370"/>
      <point x="10" y="336" type="curve"/>
      <point x="10" y="328" type="line"/>
      <point x="23" y="320"/>
      <point x="48" y="304"/>
      <point x="48" y="270" type="curve"/>
      <point x="48" y="69" type="line" smooth="yes"/>
      <point x="48" y="52"/>
      <point x="169" y="-20"/>
    </contour>
    <contour>
      <point x="633" y="71" type="curve"/>
      <point x="549" y="70"/>
      <point x="476" y="118"/>
      <point x="476" y="228" type="curve"/>
      <point x="476" y="272"/>
      <point x="485" y="313"/>
      <point x="508" y="341" type="curve"/>
      <point x="568" y="351"/>
      <point x="677" y="311"/>
      <point x="677" y="202" type="curve"/>
      <point x="677" y="142"/>
      <point x="658" y="103"/>
    </contour>
    <contour>
      <point x="548" y="-21" type="curve"/>
      <point x="615" y="9"/>
      <point x="700" y="54"/>
      <point x="735" y="90" type="curve"/>
      <point x="765" y="121"/>
      <point x="776" y="204"/>
      <point x="776" y="240" type="curve"/>
      <point x="776" y="391"/>
      <point x="657" y="440"/>
      <point x="594" y="450" type="curve"/>
      <point x="577" y="450"/>
      <point x="440" y="333"/>
      <point x="412" y="312" type="curve"/>
      <point x="385" y="291"/>
      <point x="362" y="253"/>
      <point x="362" y="195" type="curve"/>
      <point x="362" y="80"/>
      <point x="475" y="-11"/>
    </contour>
    <contour>
      <point x="192" y="0" type="move" name="bottom_1"/>
    </contour>
    <contour>
      <point x="595" y="0" type="move" name="bottom_2"/>
    </contour>
    <contour>
      <point x="393" y="0" type="move" name="caret_1"/>
    </contour>
    <contour>
      <point x="192" y="430" type="move" name="top_1"/>
    </contour>
    <contour>
      <point x="595" y="430" type="move" name="top_2"/>
    </contour>
  </outline>
  <lib>
    <dict>
      <key>com.schriftgestaltung.Glyphs.lastChange</key>
      <string>2019-04-13 12:36:56 +0000</string>
      <key>com.schriftgestaltung.Glyphs.leftMetricsKey</key>
      <string>b</string>
      <key>com.schriftgestaltung.Glyphs.rightMetricsKey</key>
      <string>=o</string>
      <key>public.markColor</key>
      <string>0.67,0.95,0.38,1</string>
    </dict>
  </lib>
</glyph>
