<?xml version="1.0" encoding="UTF-8"?>
<glyph name="c_macr" format="1">
  <advance width="396"/>
  <outline>
    <contour>
      <point x="66" y="577" type="curve"/>
      <point x="96" y="568" type="line"/>
      <point x="114" y="581"/>
      <point x="150" y="597"/>
      <point x="176" y="598" type="curve"/>
      <point x="203" y="599"/>
      <point x="273" y="598"/>
      <point x="302" y="600" type="curve"/>
      <point x="317" y="611"/>
      <point x="354" y="664"/>
      <point x="381" y="698" type="curve"/>
      <point x="347" y="705" type="line"/>
      <point x="331" y="698"/>
      <point x="316" y="695"/>
      <point x="290" y="693" type="curve"/>
      <point x="263" y="691"/>
      <point x="196" y="691"/>
      <point x="168" y="689" type="curve"/>
      <point x="154" y="678"/>
      <point x="94" y="611"/>
    </contour>
    <component base="c"/>
    <contour>
      <point x="189" y="0" type="move" name="bottom"/>
    </contour>
    <contour>
      <point x="189" y="430" type="move" name="top"/>
    </contour>
  </outline>
  <lib>
    <dict>
      <key>com.schriftgestaltung.Glyphs.ComponentInfo</key>
      <array>
        <dict>
          <key>alignment</key>
          <integer>-1</integer>
          <key>index</key>
          <integer>0</integer>
          <key>name</key>
          <string>c</string>
        </dict>
      </array>
      <key>com.schriftgestaltung.Glyphs.lastChange</key>
      <string>2019-04-23 12:31:53 +0000</string>
      <key>com.schriftgestaltung.Glyphs.leftMetricsKey</key>
      <string>c</string>
      <key>com.schriftgestaltung.Glyphs.rightMetricsKey</key>
      <string>c</string>
      <key>public.markColor</key>
      <string>0.67,0.95,0.38,1</string>
    </dict>
  </lib>
</glyph>
