<?xml version="1.0" encoding="UTF-8"?>
<glyph name="c_o_macr" format="1">
  <advance width="748"/>
  <outline>
    <contour>
      <point x="394" y="587" type="curve"/>
      <point x="424" y="578" type="line"/>
      <point x="468" y="609"/>
      <point x="516" y="596"/>
      <point x="622" y="600" type="curve"/>
      <point x="639" y="621"/>
      <point x="661" y="664"/>
      <point x="684" y="698" type="curve"/>
      <point x="650" y="705" type="line"/>
      <point x="634" y="698"/>
      <point x="619" y="695"/>
      <point x="593" y="693" type="curve"/>
      <point x="566" y="691"/>
      <point x="489" y="691"/>
      <point x="461" y="689" type="curve"/>
      <point x="444" y="668"/>
      <point x="422" y="621"/>
    </contour>
    <component base="c_o"/>
    <contour>
      <point x="123" y="0" type="move" name="bottom_1"/>
    </contour>
    <contour>
      <point x="369" y="0" type="move" name="bottom_2"/>
    </contour>
    <contour>
      <point x="615" y="0" type="move" name="bottom_3"/>
    </contour>
    <contour>
      <point x="246" y="0" type="move" name="caret_1"/>
    </contour>
    <contour>
      <point x="492" y="0" type="move" name="caret_2"/>
    </contour>
    <contour>
      <point x="123" y="430" type="move" name="top_1"/>
    </contour>
    <contour>
      <point x="369" y="430" type="move" name="top_2"/>
    </contour>
    <contour>
      <point x="615" y="430" type="move" name="top_3"/>
    </contour>
  </outline>
  <lib>
    <dict>
      <key>com.schriftgestaltung.Glyphs.ComponentInfo</key>
      <array>
        <dict>
          <key>alignment</key>
          <integer>-1</integer>
          <key>index</key>
          <integer>0</integer>
          <key>name</key>
          <string>c_o</string>
        </dict>
      </array>
      <key>com.schriftgestaltung.Glyphs.lastChange</key>
      <string>2019-04-23 12:30:03 +0000</string>
      <key>com.schriftgestaltung.Glyphs.rightMetricsKey</key>
      <string>o</string>
      <key>public.markColor</key>
      <string>0.67,0.95,0.38,1</string>
    </dict>
  </lib>
</glyph>
