<?xml version="1.0" encoding="UTF-8"?>
<glyph name="N" format="1">
  <advance width="758"/>
  <unicode hex="004E"/>
  <outline>
    <contour>
      <point x="278" y="614" type="curve"/>
      <point x="233" y="593" type="line"/>
      <point x="241" y="435"/>
      <point x="247" y="155"/>
      <point x="214" y="-60" type="curve"/>
      <point x="222" y="-61" type="line"/>
      <point x="257" y="-19" type="line"/>
      <point x="285" y="191"/>
      <point x="277" y="455"/>
    </contour>
    <contour>
      <point x="196" y="543" type="curve"/>
      <point x="238" y="573"/>
      <point x="272" y="636"/>
      <point x="381" y="636" type="curve"/>
      <point x="472" y="636"/>
      <point x="572" y="580"/>
      <point x="572" y="453" type="curve"/>
      <point x="572" y="365"/>
      <point x="519" y="254"/>
      <point x="455" y="176" type="curve"/>
      <point x="437" y="153"/>
      <point x="409" y="135"/>
      <point x="378" y="109" type="curve"/>
      <point x="425" y="67"/>
      <point x="476" y="18"/>
      <point x="524" y="-21" type="curve"/>
      <point x="540" y="-21"/>
      <point x="665" y="47"/>
      <point x="723" y="89" type="curve"/>
      <point x="719" y="112" type="line"/>
      <point x="688" y="95"/>
      <point x="651" y="86"/>
      <point x="630" y="86" type="curve"/>
      <point x="580" y="86"/>
      <point x="529" y="136"/>
      <point x="502" y="169" type="curve"/>
      <point x="565" y="269"/>
      <point x="701" y="394"/>
      <point x="701" y="512" type="curve"/>
      <point x="701" y="611"/>
      <point x="603" y="722"/>
      <point x="481" y="722" type="curve"/>
      <point x="452" y="722"/>
      <point x="252" y="620"/>
      <point x="61" y="575" type="curve"/>
      <point x="71" y="375"/>
      <point x="80" y="148"/>
      <point x="78" y="-22" type="curve"/>
      <point x="77" y="-100"/>
      <point x="71" y="-142"/>
      <point x="30" y="-224" type="curve"/>
      <point x="50" y="-239" type="line"/>
      <point x="102" y="-194"/>
      <point x="156" y="-114"/>
      <point x="180" y="-76" type="curve"/>
      <point x="195" y="66"/>
      <point x="196" y="308"/>
    </contour>
    <contour>
      <point x="377" y="0" type="move" name="bottom"/>
    </contour>
    <contour>
      <point x="377" y="700" type="move" name="top"/>
    </contour>
  </outline>
  <lib>
    <dict>
      <key>com.schriftgestaltung.Glyphs.lastChange</key>
      <string>2019-04-13 17:48:54 +0000</string>
      <key>com.schriftgestaltung.Glyphs.leftMetricsKey</key>
      <string>H</string>
      <key>com.schriftgestaltung.Glyphs.rightMetricsKey</key>
      <string>H</string>
      <key>public.markColor</key>
      <string>0.97,0.9,0,1</string>
    </dict>
  </lib>
</glyph>
