<?xml version="1.0" encoding="UTF-8"?>
<glyph name="r.ss01" format="1">
  <advance width="294"/>
  <outline>
    <contour>
      <point x="149" y="-20" type="curve"/>
      <point x="165" y="-20"/>
      <point x="239" y="46"/>
      <point x="265" y="68" type="curve"/>
      <point x="253" y="90" type="line"/>
      <point x="220" y="85"/>
      <point x="182" y="94"/>
      <point x="135" y="137" type="curve"/>
      <point x="191" y="199"/>
      <point x="269" y="259"/>
      <point x="269" y="337" type="curve"/>
      <point x="269" y="397"/>
      <point x="208" y="450"/>
      <point x="135" y="450" type="curve"/>
      <point x="119" y="450"/>
      <point x="63" y="393"/>
      <point x="23" y="353" type="curve"/>
      <point x="23" y="326" type="line"/>
      <point x="34" y="329"/>
      <point x="58" y="349"/>
      <point x="89" y="349" type="curve"/>
      <point x="127" y="349"/>
      <point x="170" y="322"/>
      <point x="170" y="274" type="curve"/>
      <point x="170" y="211"/>
      <point x="61" y="122"/>
      <point x="30" y="95" type="curve"/>
      <point x="30" y="88" type="line"/>
      <point x="64" y="56"/>
      <point x="124" y="-20"/>
    </contour>
    <contour>
      <point x="138" y="0" type="move" name="bottom"/>
    </contour>
    <contour>
      <point x="138" y="430" type="move" name="top"/>
    </contour>
  </outline>
  <lib>
    <dict>
      <key>com.schriftgestaltung.Glyphs.lastChange</key>
      <string>2019-01-14 10:03:51 +0000</string>
      <key>public.markColor</key>
      <string>0.67,0.95,0.38,1</string>
    </dict>
  </lib>
</glyph>
