<?xml version="1.0" encoding="UTF-8"?>
<glyph name="bardes" format="1">
  <advance width="500"/>
  <outline>
    <contour>
      <point x="456" y="15" type="line"/>
      <point x="451" y="19" type="line"/>
      <point x="317" y="-41"/>
      <point x="176" y="-86"/>
      <point x="22" y="-138" type="curve"/>
      <point x="22" y="-144" type="line"/>
      <point x="50" y="-156" type="line"/>
      <point x="183" y="-112"/>
      <point x="310" y="-80"/>
      <point x="443" y="-40" type="curve"/>
    </contour>
  </outline>
  <lib>
    <dict>
      <key>com.schriftgestaltung.Glyphs.lastChange</key>
      <string>2019-04-19 15:56:47 +0000</string>
      <key>public.markColor</key>
      <string>0.75,0.75,0.75,1</string>
    </dict>
  </lib>
</glyph>
