<?xml version="1.0" encoding="UTF-8"?>
<glyph name="g" format="1">
  <advance width="512"/>
  <unicode hex="0067"/>
  <outline>
    <contour>
      <point x="10" y="-153" type="curve"/>
      <point x="10" y="-253"/>
      <point x="137" y="-290"/>
      <point x="247" y="-290" type="curve"/>
      <point x="397" y="-290"/>
      <point x="502" y="-221"/>
      <point x="502" y="-128" type="curve"/>
      <point x="502" y="-40"/>
      <point x="393" y="-14"/>
      <point x="383" y="-14" type="curve"/>
      <point x="375" y="-14"/>
      <point x="339" y="-21"/>
      <point x="306" y="-21" type="curve"/>
      <point x="291" y="-21"/>
      <point x="219" y="11"/>
      <point x="204" y="36" type="curve"/>
      <point x="211" y="47"/>
      <point x="245" y="63"/>
      <point x="262" y="63" type="curve"/>
      <point x="362" y="63"/>
      <point x="464" y="120"/>
      <point x="464" y="230" type="curve"/>
      <point x="464" y="274"/>
      <point x="441" y="313"/>
      <point x="422" y="332" type="curve"/>
      <point x="501" y="340" type="line"/>
      <point x="501" y="400" type="line"/>
      <point x="362" y="400" type="line" smooth="yes"/>
      <point x="323" y="400"/>
      <point x="294" y="410"/>
      <point x="251" y="410" type="curve"/>
      <point x="131" y="410"/>
      <point x="39" y="350"/>
      <point x="39" y="240" type="curve"/>
      <point x="39" y="167"/>
      <point x="101" y="108"/>
      <point x="179" y="80" type="curve"/>
      <point x="160" y="70"/>
      <point x="139" y="66"/>
      <point x="107" y="58" type="curve"/>
      <point x="107" y="28" type="line"/>
      <point x="146" y="17"/>
      <point x="191" y="-11"/>
      <point x="200" y="-39" type="curve"/>
      <point x="159" y="-51"/>
      <point x="120" y="-57"/>
      <point x="75" y="-61" type="curve"/>
      <point x="39" y="-75"/>
      <point x="10" y="-108"/>
    </contour>
    <contour>
      <point x="104" y="-162" type="curve"/>
      <point x="104" y="-98"/>
      <point x="200" y="-59"/>
      <point x="278" y="-58" type="curve"/>
      <point x="352" y="-57"/>
      <point x="429" y="-88"/>
      <point x="429" y="-149" type="curve"/>
      <point x="429" y="-209"/>
      <point x="362" y="-255"/>
      <point x="267" y="-255" type="curve"/>
      <point x="177" y="-255"/>
      <point x="104" y="-223"/>
    </contour>
    <contour>
      <point x="136" y="218" type="curve"/>
      <point x="136" y="285"/>
      <point x="191" y="328"/>
      <point x="253" y="328" type="curve"/>
      <point x="323" y="328"/>
      <point x="374" y="286"/>
      <point x="374" y="219" type="curve"/>
      <point x="374" y="154"/>
      <point x="324" y="106"/>
      <point x="255" y="106" type="curve"/>
      <point x="191" y="106"/>
      <point x="136" y="152"/>
    </contour>
  </outline>
  <lib>
    <dict>
      <key>com.schriftgestaltung.Glyphs.lastChange</key>
      <string>2019-04-24 16:48:09 +0000</string>
      <key>public.markColor</key>
      <string>0.67,0.95,0.38,1</string>
    </dict>
  </lib>
</glyph>
