<?xml version="1.0" encoding="UTF-8"?>
<glyph name="g.ss01" format="1">
  <advance width="584"/>
  <outline>
    <contour>
      <point x="55" y="241" type="curve"/>
      <point x="55" y="154"/>
      <point x="117" y="83"/>
      <point x="231" y="83" type="curve"/>
      <point x="371" y="83"/>
      <point x="447" y="152"/>
      <point x="447" y="259" type="curve"/>
      <point x="447" y="278"/>
      <point x="442" y="307"/>
      <point x="433" y="323" type="curve"/>
      <point x="476" y="331"/>
      <point x="515" y="335"/>
      <point x="558" y="337" type="curve"/>
      <point x="555" y="400" type="line"/>
      <point x="454" y="400" type="line" smooth="yes"/>
      <point x="385" y="400"/>
      <point x="347" y="411"/>
      <point x="264" y="410" type="curve"/>
      <point x="151" y="408"/>
      <point x="55" y="347"/>
    </contour>
    <contour>
      <point x="151" y="227" type="curve"/>
      <point x="151" y="302"/>
      <point x="198" y="350"/>
      <point x="261" y="350" type="curve"/>
      <point x="315" y="350"/>
      <point x="349" y="306"/>
      <point x="349" y="244" type="curve"/>
      <point x="349" y="174"/>
      <point x="302" y="121"/>
      <point x="241" y="121" type="curve"/>
      <point x="189" y="121"/>
      <point x="151" y="164"/>
    </contour>
    <contour>
      <point x="242" y="84" type="curve"/>
      <point x="185" y="105" type="line"/>
      <point x="66" y="34" type="line"/>
      <point x="66" y="-21"/>
      <point x="144" y="-61"/>
      <point x="210" y="-62" type="curve"/>
      <point x="269" y="-63"/>
      <point x="326" y="-63"/>
      <point x="385" y="-64" type="curve"/>
      <point x="460" y="-65"/>
      <point x="535" y="-88"/>
      <point x="535" y="-148" type="curve"/>
      <point x="535" y="-210"/>
      <point x="459" y="-251"/>
      <point x="349" y="-251" type="curve"/>
      <point x="234" y="-251"/>
      <point x="153" y="-195"/>
      <point x="153" y="-131" type="curve"/>
      <point x="153" y="-99"/>
      <point x="174" y="-76"/>
      <point x="222" y="-58" type="curve"/>
      <point x="175" y="-49" type="line"/>
      <point x="104" y="-71"/>
      <point x="58" y="-86"/>
      <point x="58" y="-150" type="curve"/>
      <point x="58" y="-233"/>
      <point x="180" y="-288"/>
      <point x="328" y="-288" type="curve"/>
      <point x="460" y="-288"/>
      <point x="594" y="-219"/>
      <point x="594" y="-119" type="curve"/>
      <point x="594" y="-46"/>
      <point x="537" y="-6"/>
      <point x="451" y="-6" type="curve"/>
      <point x="382" y="-6"/>
      <point x="322" y="-17"/>
      <point x="264" y="-17" type="curve"/>
      <point x="208" y="-17"/>
      <point x="161" y="8"/>
      <point x="161" y="36" type="curve"/>
      <point x="161" y="59"/>
      <point x="207" y="84"/>
    </contour>
  </outline>
  <lib>
    <dict>
      <key>com.schriftgestaltung.Glyphs.lastChange</key>
      <string>2019-04-24 16:48:09 +0000</string>
      <key>public.markColor</key>
      <string>0.67,0.95,0.38,1</string>
    </dict>
  </lib>
</glyph>
