<?xml version="1.0" encoding="UTF-8"?>
<glyph name="L.ss01" format="1">
  <advance width="890"/>
  <outline>
    <contour>
      <point x="556" y="689" type="line"/>
      <point x="585" y="689" type="line"/>
      <point x="575" y="82" type="line"/>
      <point x="546" y="89" type="line"/>
    </contour>
    <contour>
      <point x="272" y="-7" type="curve"/>
      <point x="256" y="-7" type="line"/>
      <point x="262" y="81" type="line"/>
      <point x="294" y="103"/>
      <point x="350" y="125"/>
      <point x="404" y="125" type="curve"/>
      <point x="497" y="125"/>
      <point x="660" y="88"/>
      <point x="734" y="83" type="curve"/>
      <point x="781" y="80"/>
      <point x="787" y="84"/>
      <point x="826" y="110" type="curve"/>
      <point x="848" y="91" type="line"/>
      <point x="733" y="-15" type="line"/>
      <point x="670" y="4"/>
      <point x="501" y="47"/>
      <point x="407" y="47" type="curve"/>
      <point x="359" y="47"/>
      <point x="293" y="25"/>
    </contour>
    <contour>
      <point x="56" y="518" type="curve"/>
      <point x="29" y="524" type="line"/>
      <point x="44" y="604"/>
      <point x="103" y="686"/>
      <point x="143" y="703" type="curve"/>
      <point x="209" y="694"/>
      <point x="321" y="676"/>
      <point x="411" y="681" type="curve"/>
      <point x="540" y="688"/>
      <point x="568" y="713"/>
      <point x="729" y="709" type="curve"/>
      <point x="728" y="683" type="line"/>
      <point x="541" y="675"/>
      <point x="476" y="591"/>
      <point x="413" y="591" type="curve"/>
      <point x="297" y="591"/>
      <point x="223" y="619"/>
      <point x="145" y="619" type="curve"/>
      <point x="102" y="619"/>
      <point x="73" y="561"/>
    </contour>
    <contour>
      <point x="260" y="396" type="curve"/>
      <point x="260" y="399" type="line"/>
      <point x="385" y="469" type="line"/>
      <point x="378" y="332" type="line"/>
      <point x="354" y="371"/>
      <point x="304" y="382"/>
    </contour>
    <contour>
      <point x="260" y="275" type="line"/>
      <point x="374" y="338" type="line"/>
      <point x="390" y="226" type="line"/>
      <point x="334" y="257"/>
      <point x="297" y="261"/>
      <point x="261" y="272" type="curve"/>
    </contour>
    <contour>
      <point x="468" y="60" type="curve"/>
      <point x="359" y="66" type="line"/>
      <point x="375" y="149"/>
      <point x="375" y="230"/>
      <point x="360" y="660" type="curve"/>
      <point x="458" y="660" type="line"/>
      <point x="458" y="496"/>
      <point x="460" y="274"/>
    </contour>
  </outline>
  <lib>
    <dict>
      <key>com.schriftgestaltung.Glyphs.lastChange</key>
      <string>2019-04-24 16:48:09 +0000</string>
      <key>public.markColor</key>
      <string>0.97,0.9,0,1</string>
    </dict>
  </lib>
</glyph>
