<?xml version="1.0" encoding="UTF-8"?>
<glyph name="m_macr" format="1">
  <advance width="748"/>
  <unicode hex="E5B8"/>
  <outline>
    <contour>
      <point x="327" y="497" type="curve"/>
      <point x="303" y="510" type="line"/>
      <point x="386" y="605" type="line"/>
      <point x="464" y="605"/>
      <point x="520" y="586"/>
      <point x="594" y="637" type="curve"/>
      <point x="622" y="629" type="line"/>
      <point x="512" y="495" type="line"/>
      <point x="451" y="501"/>
      <point x="376" y="521"/>
    </contour>
    <component base="m"/>
    <contour>
      <point x="440" y="353" type="move" name="_top"/>
    </contour>
    <contour>
      <point x="431" y="626" type="move" name="top"/>
    </contour>
  </outline>
  <lib>
    <dict>
      <key>com.schriftgestaltung.Glyphs.ComponentInfo</key>
      <array>
        <dict>
          <key>alignment</key>
          <integer>-1</integer>
          <key>index</key>
          <integer>0</integer>
          <key>name</key>
          <string>m</string>
        </dict>
      </array>
      <key>com.schriftgestaltung.Glyphs.lastChange</key>
      <string>2019-04-22 14:27:35 +0000</string>
      <key>public.markColor</key>
      <string>0.67,0.95,0.38,1</string>
    </dict>
  </lib>
</glyph>
