<?xml version="1.0" encoding="UTF-8"?>
<glyph name="o" format="1">
  <advance width="468"/>
  <unicode hex="006F"/>
  <outline>
    <contour>
      <point x="244" y="-10" type="curve"/>
      <point x="359" y="-10"/>
      <point x="443" y="80"/>
      <point x="443" y="197" type="curve"/>
      <point x="443" y="324"/>
      <point x="349" y="410"/>
      <point x="224" y="410" type="curve"/>
      <point x="101" y="410"/>
      <point x="25" y="314"/>
      <point x="25" y="197" type="curve"/>
      <point x="25" y="70"/>
      <point x="119" y="-10"/>
    </contour>
    <contour>
      <point x="348" y="187" type="curve"/>
      <point x="348" y="101"/>
      <point x="304" y="33"/>
      <point x="244" y="33" type="curve"/>
      <point x="168" y="33"/>
      <point x="119" y="114"/>
      <point x="119" y="219" type="curve"/>
      <point x="119" y="319"/>
      <point x="166" y="366"/>
      <point x="228" y="366" type="curve"/>
      <point x="298" y="366"/>
      <point x="348" y="280"/>
    </contour>
    <contour>
      <point x="234" y="0" type="move" name="bottom"/>
    </contour>
    <contour>
      <point x="234" y="200" type="move" name="center"/>
    </contour>
    <contour>
      <point x="421" y="10" type="move" name="ogonek"/>
    </contour>
    <contour>
      <point x="234" y="400" type="move" name="top"/>
    </contour>
    <contour>
      <point x="448" y="400" type="move" name="topright"/>
    </contour>
  </outline>
  <lib>
    <dict>
      <key>com.schriftgestaltung.Glyphs.lastChange</key>
      <string>2019-04-24 16:48:09 +0000</string>
      <key>public.markColor</key>
      <string>0.67,0.95,0.38,1</string>
    </dict>
  </lib>
</glyph>
