<?xml version="1.0" encoding="UTF-8"?>
<glyph name="q_etfin_ring" format="1">
  <advance width="747"/>
  <outline>
    <contour>
      <point x="415" y="489" type="curve"/>
      <point x="485" y="489"/>
      <point x="556" y="532"/>
      <point x="556" y="603" type="curve"/>
      <point x="556" y="683"/>
      <point x="485" y="711"/>
      <point x="415" y="711" type="curve"/>
      <point x="344" y="711"/>
      <point x="276" y="674"/>
      <point x="276" y="600" type="curve"/>
      <point x="276" y="530"/>
      <point x="344" y="489"/>
    </contour>
    <contour>
      <point x="416" y="526" type="curve"/>
      <point x="373" y="526"/>
      <point x="349" y="564"/>
      <point x="349" y="600" type="curve"/>
      <point x="349" y="636"/>
      <point x="373" y="675"/>
      <point x="416" y="675" type="curve"/>
      <point x="458" y="675"/>
      <point x="482" y="636"/>
      <point x="482" y="600" type="curve"/>
      <point x="482" y="564"/>
      <point x="458" y="526"/>
    </contour>
    <contour>
      <point x="440" y="-105" type="curve"/>
      <point x="452" y="-144" type="line"/>
      <point x="562" y="-132"/>
      <point x="782" y="17"/>
      <point x="782" y="128" type="curve"/>
      <point x="782" y="198"/>
      <point x="691" y="210"/>
      <point x="648" y="211" type="curve"/>
      <point x="634" y="189" type="line"/>
      <point x="683" y="217"/>
      <point x="732" y="251"/>
      <point x="767" y="295" type="curve"/>
      <point x="767" y="334"/>
      <point x="670" y="412"/>
      <point x="655" y="412" type="curve"/>
      <point x="640" y="412"/>
      <point x="521" y="360"/>
      <point x="481" y="321" type="curve"/>
      <point x="481" y="276" type="line"/>
      <point x="568" y="368"/>
      <point x="648" y="320"/>
      <point x="648" y="259" type="curve"/>
      <point x="648" y="220"/>
      <point x="518" y="157"/>
      <point x="466" y="150" type="curve"/>
      <point x="477" y="111" type="line"/>
      <point x="590" y="156" type="line"/>
      <point x="640" y="156"/>
      <point x="666" y="126"/>
      <point x="666" y="85" type="curve"/>
      <point x="666" y="10"/>
      <point x="558" y="-80"/>
    </contour>
    <contour>
      <point x="0" y="0"/>
    </contour>
    <component base="q"/>
  </outline>
  <lib>
    <dict>
      <key>com.schriftgestaltung.Glyphs.ComponentInfo</key>
      <array>
        <dict>
          <key>alignment</key>
          <integer>-1</integer>
          <key>index</key>
          <integer>0</integer>
          <key>name</key>
          <string>q</string>
        </dict>
      </array>
      <key>com.schriftgestaltung.Glyphs.lastChange</key>
      <string>2019-04-19 22:04:51 +0000</string>
      <key>com.schriftgestaltung.Glyphs.leftMetricsKey</key>
      <string>q</string>
      <key>public.markColor</key>
      <string>0.67,0.95,0.38,1</string>
    </dict>
  </lib>
</glyph>
