<?xml version="1.0" encoding="UTF-8"?>
<glyph name="f_f" format="1">
  <advance width="605"/>
  <unicode hex="FB00"/>
  <outline>
    <contour>
      <point x="315" y="409" type="curve"/>
      <point x="141" y="409" type="line"/>
      <point x="145" y="505" type="line" smooth="yes"/>
      <point x="149" y="605"/>
      <point x="189" y="645"/>
      <point x="235" y="645" type="curve"/>
      <point x="287" y="645"/>
      <point x="313" y="621"/>
      <point x="338" y="588" type="curve"/>
      <point x="326" y="554"/>
      <point x="315" y="466"/>
    </contour>
    <contour>
      <point x="141" y="357" type="curve"/>
      <point x="315" y="357" type="line"/>
      <point x="314" y="236"/>
      <point x="312" y="121"/>
      <point x="303" y="0" type="curve"/>
      <point x="403" y="0" type="line"/>
      <point x="399" y="107"/>
      <point x="399" y="206"/>
      <point x="399" y="357" type="curve"/>
      <point x="519" y="357" type="line"/>
      <point x="528" y="408" type="line"/>
      <point x="398" y="409" type="line"/>
      <point x="398" y="475" type="line" smooth="yes"/>
      <point x="398" y="601"/>
      <point x="415" y="650"/>
      <point x="498" y="650" type="curve"/>
      <point x="535" y="650"/>
      <point x="574" y="620"/>
      <point x="580" y="582" type="curve"/>
      <point x="599" y="577" type="line"/>
      <point x="638" y="644" type="line"/>
      <point x="626" y="685"/>
      <point x="570" y="710"/>
      <point x="521" y="710" type="curve"/>
      <point x="466" y="710"/>
      <point x="423" y="682"/>
      <point x="397" y="655" type="curve"/>
      <point x="360" y="688"/>
      <point x="316" y="710"/>
      <point x="268" y="710" type="curve"/>
      <point x="185" y="710"/>
      <point x="63" y="625"/>
      <point x="63" y="474" type="curve"/>
      <point x="63" y="435"/>
      <point x="46" y="402"/>
      <point x="24" y="390" type="curve"/>
      <point x="24" y="369" type="line"/>
      <point x="36" y="362"/>
      <point x="56" y="342"/>
      <point x="56" y="315" type="curve"/>
      <point x="56" y="240"/>
      <point x="53" y="121"/>
      <point x="47" y="0" type="curve"/>
      <point x="142" y="0" type="line"/>
      <point x="137" y="92"/>
      <point x="141" y="216"/>
    </contour>
  </outline>
  <lib>
    <dict>
      <key>com.schriftgestaltung.Glyphs.lastChange</key>
      <string>2019-04-24 15:11:29 +0000</string>
      <key>com.schriftgestaltung.Glyphs.leftMetricsKey</key>
      <string>f</string>
      <key>public.markColor</key>
      <string>0.67,0.95,0.38,1</string>
    </dict>
  </lib>
</glyph>
