<?xml version="1.0" encoding="UTF-8"?>
<glyph name="enspace" format="1">
  <advance width="500"/>
  <unicode hex="2002"/>
  <outline>
  </outline>
  <lib>
    <dict>
      <key>com.schriftgestaltung.Glyphs.lastChange</key>
      <string>2019-03-21 16:53:16 +0000</string>
    </dict>
  </lib>
</glyph>
