<?xml version="1.0" encoding="UTF-8"?>
<glyph name="N" format="1">
  <advance width="756"/>
  <unicode hex="004E"/>
  <outline>
    <contour>
      <point x="89" y="597" type="curve"/>
      <point x="93" y="395"/>
      <point x="87" y="120"/>
      <point x="61" y="0" type="curve"/>
      <point x="170" y="0" type="line"/>
      <point x="140" y="123"/>
      <point x="154" y="406"/>
      <point x="146" y="609" type="curve"/>
      <point x="142" y="587" type="line"/>
      <point x="336" y="354"/>
      <point x="640" y="49"/>
      <point x="652" y="-10" type="curve"/>
      <point x="707" y="-10" type="line"/>
      <point x="688" y="192"/>
      <point x="687" y="618"/>
      <point x="716" y="690" type="curve"/>
      <point x="597" y="690" type="line"/>
      <point x="618" y="604"/>
      <point x="640" y="406"/>
      <point x="637" y="149" type="curve"/>
      <point x="654" y="189" type="line"/>
      <point x="513" y="347"/>
      <point x="337" y="530"/>
      <point x="204" y="700" type="curve"/>
      <point x="30" y="700" type="line"/>
      <point x="30" y="684" type="line"/>
      <point x="47" y="673"/>
      <point x="89" y="627"/>
    </contour>
  </outline>
  <lib>
    <dict>
      <key>com.schriftgestaltung.Glyphs.lastChange</key>
      <string>2019-04-24 17:58:22 +0000</string>
      <key>com.schriftgestaltung.Glyphs.rightMetricsKey</key>
      <string>H</string>
      <key>public.markColor</key>
      <string>0.97,0.9,0,1</string>
    </dict>
  </lib>
</glyph>
