<?xml version="1.0" encoding="UTF-8"?>
<glyph name="period" format="1">
  <advance width="223"/>
  <unicode hex="002E"/>
  <outline>
    <contour>
      <point x="106" y="-9" type="line"/>
      <point x="28" y="75" type="line"/>
      <point x="108" y="148" type="line"/>
      <point x="183" y="66" type="line"/>
    </contour>
  </outline>
  <lib>
    <dict>
      <key>com.schriftgestaltung.Glyphs.lastChange</key>
      <string>2019-04-24 17:58:22 +0000</string>
      <key>public.markColor</key>
      <string>0.75,0.75,0.75,1</string>
    </dict>
  </lib>
</glyph>
