<?xml version="1.0" encoding="UTF-8"?>
<glyph name="z" format="1">
  <advance width="354"/>
  <unicode hex="007A"/>
  <outline>
    <contour>
      <point x="388" y="93" type="curve"/>
      <point x="393" y="88" type="line"/>
      <point x="342" y="-5" type="line"/>
      <point x="145" y="23"/>
      <point x="90" y="30"/>
      <point x="3" y="0" type="curve"/>
      <point x="-1" y="7" type="line"/>
      <point x="81" y="100"/>
      <point x="210" y="269"/>
      <point x="265" y="370" type="curve"/>
      <point x="187" y="373"/>
      <point x="36" y="373"/>
      <point x="9" y="359" type="curve"/>
      <point x="3" y="365" type="line"/>
      <point x="16" y="452" type="line"/>
      <point x="164" y="445"/>
      <point x="286" y="451"/>
      <point x="371" y="464" type="curve"/>
      <point x="374" y="456" type="line"/>
      <point x="309" y="357"/>
      <point x="187" y="182"/>
      <point x="137" y="104" type="curve"/>
      <point x="200" y="103"/>
      <point x="343" y="78"/>
    </contour>
  </outline>
  <lib>
    <dict>
      <key>com.schriftgestaltung.Glyphs.lastChange</key>
      <string>2019-04-24 17:58:22 +0000</string>
      <key>public.markColor</key>
      <string>0.67,0.95,0.38,1</string>
    </dict>
  </lib>
</glyph>
