<?xml version="1.0" encoding="UTF-8"?>
<glyph name="d_strok" format="1">
  <advance width="519"/>
  <note>
    d_apomod
  </note>
  <outline>
    <contour>
      <point x="279" y="549" type="curve"/>
      <point x="306" y="530" type="line"/>
      <point x="346" y="570"/>
      <point x="388" y="597"/>
      <point x="416" y="642" type="curve"/>
      <point x="406" y="681"/>
      <point x="344" y="709"/>
      <point x="291" y="708" type="curve"/>
      <point x="236" y="670" type="line"/>
      <point x="238" y="657" type="line"/>
      <point x="279" y="650"/>
      <point x="323" y="626"/>
      <point x="323" y="600" type="curve"/>
      <point x="323" y="588"/>
      <point x="295" y="556"/>
    </contour>
    <component base="d"/>
  </outline>
  <lib>
    <dict>
      <key>com.schriftgestaltung.Glyphs.ComponentInfo</key>
      <array>
        <dict>
          <key>alignment</key>
          <integer>-1</integer>
          <key>index</key>
          <integer>0</integer>
          <key>name</key>
          <string>d</string>
        </dict>
      </array>
      <key>com.schriftgestaltung.Glyphs.lastChange</key>
      <string>2019-04-23 14:01:23 +0000</string>
      <key>com.schriftgestaltung.Glyphs.leftMetricsKey</key>
      <string>d</string>
      <key>com.schriftgestaltung.Glyphs.rightMetricsKey</key>
      <string>d</string>
      <key>public.markColor</key>
      <string>0.67,0.95,0.38,1</string>
    </dict>
  </lib>
</glyph>
