<?xml version="1.0" encoding="UTF-8"?>
<glyph name="longs_t_u" format="1">
  <advance width="885"/>
  <outline>
    <contour>
      <point x="337" y="172" type="curve"/>
      <point x="331" y="286"/>
      <point x="324" y="476"/>
      <point x="360" y="685" type="curve"/>
      <point x="351" y="695" type="line"/>
      <point x="251" y="679" type="line"/>
      <point x="252" y="630"/>
      <point x="258" y="535"/>
      <point x="246" y="474" type="curve"/>
      <point x="237" y="425"/>
      <point x="213" y="407"/>
      <point x="192" y="393" type="curve"/>
      <point x="192" y="373" type="line"/>
      <point x="244" y="373" type="line"/>
      <point x="244" y="71" type="line"/>
      <point x="264" y="31"/>
      <point x="324" y="0"/>
      <point x="355" y="-10" type="curve"/>
      <point x="398" y="19"/>
      <point x="449" y="45"/>
      <point x="498" y="65" type="curve"/>
      <point x="484" y="98" type="line"/>
      <point x="463" y="90"/>
      <point x="424" y="81"/>
      <point x="404" y="81" type="curve"/>
      <point x="368" y="81"/>
      <point x="341" y="105"/>
    </contour>
    <contour>
      <point x="20" y="0" type="curve"/>
      <point x="123" y="0" type="line"/>
      <point x="126" y="620" type="line"/>
      <point x="279" y="618" type="line"/>
      <point x="339" y="683" type="line"/>
      <point x="351" y="695" type="line"/>
      <point x="154" y="700" type="line"/>
      <point x="106" y="665"/>
      <point x="63" y="626"/>
      <point x="23" y="585" type="curve"/>
      <point x="23" y="290"/>
      <point x="27" y="84"/>
    </contour>
    <contour>
      <point x="508" y="455" type="line"/>
      <point x="324" y="455" type="line"/>
      <point x="326" y="375" type="line"/>
      <point x="387" y="376"/>
      <point x="457" y="374"/>
      <point x="508" y="371" type="curve"/>
    </contour>
    <contour>
      <point x="727" y="269" type="curve"/>
      <point x="727" y="206"/>
      <point x="724" y="142"/>
      <point x="716" y="79" type="curve"/>
      <point x="734" y="55"/>
      <point x="753" y="30"/>
      <point x="777" y="-10" type="curve"/>
      <point x="867" y="50" type="line"/>
      <point x="862" y="80" type="line"/>
      <point x="828" y="99"/>
      <point x="826" y="118"/>
      <point x="826" y="205" type="curve"/>
      <point x="826" y="290"/>
      <point x="831" y="346"/>
      <point x="839" y="397" type="curve"/>
      <point x="828" y="417"/>
      <point x="765" y="455"/>
      <point x="745" y="465" type="curve"/>
      <point x="743" y="465" type="line"/>
      <point x="656" y="365" type="line"/>
      <point x="667" y="346" type="line"/>
      <point x="717" y="374"/>
      <point x="727" y="322"/>
    </contour>
    <contour>
      <point x="736" y="84" type="curve"/>
      <point x="735" y="118" type="line"/>
      <point x="697" y="98"/>
      <point x="666" y="90"/>
      <point x="641" y="90" type="curve"/>
      <point x="614" y="90"/>
      <point x="593" y="91"/>
      <point x="585" y="106" type="curve"/>
      <point x="583" y="213"/>
      <point x="582" y="416"/>
      <point x="591" y="474" type="curve"/>
      <point x="580" y="480" type="line"/>
      <point x="464" y="445" type="line"/>
      <point x="461" y="377" type="line"/>
      <point x="461" y="375" type="line"/>
      <point x="480" y="355"/>
      <point x="489" y="318"/>
      <point x="489" y="248" type="curve"/>
      <point x="489" y="184"/>
      <point x="482" y="94"/>
      <point x="482" y="60" type="curve"/>
      <point x="502" y="44"/>
      <point x="556" y="0"/>
      <point x="588" y="-10" type="curve"/>
      <point x="621" y="19"/>
      <point x="683" y="55"/>
    </contour>
  </outline>
  <lib>
    <dict>
      <key>com.schriftgestaltung.Glyphs.lastChange</key>
      <string>2019-04-23 14:01:23 +0000</string>
      <key>com.schriftgestaltung.Glyphs.leftMetricsKey</key>
      <string>longs</string>
      <key>com.schriftgestaltung.Glyphs.rightMetricsKey</key>
      <string>u</string>
      <key>public.markColor</key>
      <string>0.67,0.95,0.38,1</string>
    </dict>
  </lib>
</glyph>
