<?xml version="1.0" encoding="UTF-8"?>
<glyph name="rum" format="1">
  <advance width="643"/>
  <unicode hex="A775"/>
  <note>
    uniA775
  </note>
  <outline>
    <contour>
      <point x="7" y="13" type="curve"/>
      <point x="20" y="-8" type="line"/>
      <point x="77" y="9"/>
      <point x="401" y="3"/>
      <point x="592" y="-1" type="curve"/>
      <point x="623" y="85" type="line"/>
      <point x="620" y="90" type="line"/>
      <point x="108" y="90" type="line"/>
      <point x="112" y="58" type="line"/>
      <point x="340" y="322" type="line"/>
      <point x="335" y="419"/>
      <point x="262" y="465"/>
      <point x="198" y="465" type="curve"/>
      <point x="144" y="465"/>
      <point x="94" y="406"/>
      <point x="35" y="345" type="curve"/>
      <point x="56" y="323" type="line"/>
      <point x="94" y="354"/>
      <point x="117" y="366"/>
      <point x="147" y="366" type="curve"/>
      <point x="167" y="366"/>
      <point x="223" y="349"/>
      <point x="223" y="291" type="curve"/>
      <point x="223" y="202"/>
      <point x="71" y="83"/>
    </contour>
    <contour>
      <point x="473" y="475" type="curve"/>
      <point x="470" y="475" type="line"/>
      <point x="313" y="338" type="line"/>
      <point x="332" y="315" type="line"/>
      <point x="350" y="331"/>
      <point x="369" y="345"/>
      <point x="396" y="345" type="curve"/>
      <point x="431" y="345"/>
      <point x="492" y="307"/>
      <point x="492" y="256" type="curve"/>
      <point x="492" y="197"/>
      <point x="191" y="-79"/>
      <point x="33" y="-242" type="curve"/>
      <point x="30" y="-243" type="line"/>
      <point x="87" y="-257" type="line"/>
      <point x="90" y="-257" type="line"/>
      <point x="633" y="319" type="line"/>
      <point x="633" y="322" type="line"/>
      <point x="580" y="363"/>
      <point x="526" y="414"/>
    </contour>
  </outline>
  <lib>
    <dict>
      <key>com.schriftgestaltung.Glyphs.lastChange</key>
      <string>2019-04-24 17:25:05 +0000</string>
      <key>public.markColor</key>
      <string>0.75,0.75,0.75,1</string>
    </dict>
  </lib>
</glyph>
